…
lmer_mult(
  data       = MS_trial_data,
  outcomes   = c("EDSS", "SDMT"),
  predictors = c("intervention", "intervention * time"),
  covariates = c("", "+ age + gender"),
  randoms    = c("+ (1|pat_id)")
)
#> Warning: There were 2 warnings in `dplyr::mutate()`.
#> The first warning was:
#> ℹ In argument: `ranova = purrr::map(...)`.
#> Caused by warning:
#> ! the 'nobars' function has moved to the reformulas package. Please update your imports, or ask an upstream package maintainter to do so.
#> This warning is displayed once per session.
#> ℹ Run `dplyr::last_dplyr_warnings()` to see the 1 remaining warning.
#> # A tibble: 48 × 24
#>    model_type      outcome predictor covariate random formula effect group term 
#>    <chr>           <chr>   <chr>     <chr>     <chr>  <chr>   <chr>  <chr> <chr>
#>  1 Linear mixed m… EDSS    interven… ""        + (1|… EDSS ~… fixed  <NA>  (Int…
#>  2 Linear mixed m… EDSS    interven… ""        + (1|… EDSS ~… fixed  <NA>  inte…
#>  3 Linear mixed m… EDSS    interven… ""        + (1|… EDSS ~… ran_p… pat_… sd__…
#>  4 Linear mixed m… EDSS    interven… ""        + (1|… EDSS ~… ran_p… Resi… sd__…
#>  5 Linear mixed m… EDSS    interven… "+ age +… + (1|… EDSS ~… fixed  <NA>  (Int…
#>  6 Linear mixed m… EDSS    interven… "+ age +… + (1|… EDSS ~… fixed  <NA>  inte…
#>  7 Linear mixed m… EDSS    interven… "+ age +… + (1|… EDSS ~… fixed  <NA>  age  
#>  8 Linear mixed m… EDSS    interven… "+ age +… + (1|… EDSS ~… fixed  <NA>  gend…
#>  9 Linear mixed m… EDSS    interven… "+ age +… + (1|… EDSS ~… ran_p… pat_… sd__…
#> 10 Linear mixed m… EDSS    interven… "+ age +… + (1|… EDSS ~… ran_p… Resi… sd__…
#> # ℹ 38 more rows
#> # ℹ 15 more variables: estimate <dbl>, std.error <dbl>, statistic <dbl>,
#> #   df <dbl>, p.value <dbl>, conf.low <dbl>, conf.high <dbl>, isSingular <lgl>,
#> #   logLik <dbl>, deviance <dbl>, term_ranova <lgl>, npar_ranova <lgl>,
#> #   p_ranova <lgl>, model <list>, model_error <lgl>
```
…
